
Thu Apr 23 11:27:22 2020
  1.Wert: 	27.8	 28.3	 25.8 
Thu Apr 23 11:27:22 2020
  2.Wert: 	27.2	 20.4	 24.3 
Thu Apr 23 11:27:22 2020
  3.Wert: 	21.0	 20.1	 22.3 
Thu Apr 23 11:27:22 2020
  4.Wert: 	24.3	 20.9	 21.2 
Thu Apr 23 11:27:22 2020
  5.Wert: 	24.5	 26.8	 26.8 
Thu Apr 23 11:27:22 2020
  6.Wert: 	26.4	 22.3	 26.3 
Thu Apr 23 11:27:22 2020
  7.Wert: 	28.5	 23.7	 23.0 
Thu Apr 23 11:27:22 2020
  8.Wert: 	28.0	 26.1	 22.2 
Thu Apr 23 11:27:22 2020
  9.Wert: 	28.5	 27.7	 25.0 
Thu Apr 23 11:27:22 2020
  10.Wert: 	23.8	 22.6	 22.2 
Thu Apr 23 11:27:22 2020
  11.Wert: 	27.2	 27.3	 26.6 
Thu Apr 23 11:27:22 2020
  12.Wert: 	20.1	 25.9	 26.9 
Thu Apr 23 11:27:22 2020
  13.Wert: 	22.1	 25.4	 26.5 
Thu Apr 23 11:27:22 2020
  14.Wert: 	26.8	 22.9	 23.2 
Thu Apr 23 11:27:22 2020
  15.Wert: 	25.2	 21.9	 20.4 
Thu Apr 23 11:27:22 2020
  16.Wert: 	22.2	 27.2	 21.8 
Thu Apr 23 11:27:22 2020
  17.Wert: 	27.3	 27.6	 26.8 
Thu Apr 23 11:27:22 2020
  18.Wert: 	24.8	 23.0	 27.1 
Thu Apr 23 11:27:22 2020
  19.Wert: 	23.5	 23.3	 21.6 
Thu Apr 23 11:27:22 2020
  20.Wert: 	26.3	 21.8	 20.3 
Thu Apr 23 11:27:22 2020
  21.Wert: 	26.6	 25.3	 21.2 
Thu Apr 23 11:27:22 2020
  22.Wert: 	28.4	 21.5	 28.3 
Thu Apr 23 11:27:22 2020
  23.Wert: 	20.0	 24.6	 28.1 
Thu Apr 23 11:27:22 2020
  24.Wert: 	25.9	 22.5	 24.6 
Thu Apr 23 11:27:22 2020
  25.Wert: 	21.8	 24.4	 21.7 
Thu Apr 23 11:27:22 2020
  26.Wert: 	22.5	 27.4	 23.1 
Thu Apr 23 11:27:22 2020
  27.Wert: 	25.0	 28.0	 26.1 
Thu Apr 23 11:27:22 2020
  28.Wert: 	27.9	 26.2	 21.9 
Thu Apr 23 11:27:22 2020
  29.Wert: 	21.6	 26.3	 24.6 
Thu Apr 23 11:27:22 2020
  30.Wert: 	21.1	 28.4	 25.4 
Thu Apr 23 11:27:22 2020
  31.Wert: 	21.4	 28.3	 20.0 
Thu Apr 23 11:27:22 2020
  32.Wert: 	22.6	 25.3	 28.0 
Thu Apr 23 11:27:22 2020
  33.Wert: 	27.3	 20.6	 22.1 
Thu Apr 23 11:27:22 2020
  34.Wert: 	24.1	 21.5	 26.2 
Thu Apr 23 11:27:22 2020
  35.Wert: 	27.8	 20.0	 28.1 
Thu Apr 23 11:27:22 2020
  36.Wert: 	20.5	 25.8	 21.6 
Thu Apr 23 11:27:22 2020
  37.Wert: 	24.2	 25.9	 23.8 
Thu Apr 23 11:27:22 2020
  38.Wert: 	26.6	 24.3	 21.5 
Thu Apr 23 11:27:22 2020
  39.Wert: 	27.9	 20.8	 21.3 
Thu Apr 23 11:27:22 2020
  40.Wert: 	20.3	 20.6	 26.2 
Thu Apr 23 11:27:22 2020
  41.Wert: 	27.0	 23.3	 23.0 
Thu Apr 23 11:27:22 2020
  42.Wert: 	27.7	 22.1	 26.9 
Thu Apr 23 11:27:22 2020
  43.Wert: 	20.9	 25.1	 22.9 
Thu Apr 23 11:27:22 2020
  44.Wert: 	27.1	 21.7	 24.3 
Thu Apr 23 11:27:22 2020
  45.Wert: 	24.3	 24.5	 24.1 
Thu Apr 23 11:27:22 2020
  46.Wert: 	28.4	 24.0	 24.1 
Thu Apr 23 11:27:22 2020
  47.Wert: 	28.5	 23.5	 27.9 
Thu Apr 23 11:27:22 2020
  48.Wert: 	25.4	 25.0	 25.8 
Thu Apr 23 11:27:22 2020
  49.Wert: 	26.7	 22.4	 26.6 
Thu Apr 23 11:27:22 2020
  50.Wert: 	23.0	 28.2	 28.2 
Thu Apr 23 11:27:22 2020
  51.Wert: 	25.9	 23.9	 21.1 
Thu Apr 23 11:27:22 2020
  52.Wert: 	20.7	 26.5	 20.6 
Thu Apr 23 11:27:22 2020
  53.Wert: 	21.3	 23.5	 20.0 
Thu Apr 23 11:27:22 2020
  54.Wert: 	27.7	 21.5	 28.2 
Thu Apr 23 11:27:22 2020
  55.Wert: 	26.6	 20.9	 26.2 
Thu Apr 23 11:27:22 2020
  56.Wert: 	26.1	 23.6	 22.2 
Thu Apr 23 11:27:22 2020
  57.Wert: 	25.0	 24.1	 21.9 
Thu Apr 23 11:27:22 2020
  58.Wert: 	27.6	 24.5	 22.8 
Thu Apr 23 11:27:22 2020
  59.Wert: 	26.2	 24.5	 28.3 
Thu Apr 23 11:27:22 2020
  60.Wert: 	21.2	 26.8	 26.2 
Thu Apr 23 11:27:22 2020
  61.Wert: 	25.4	 23.9	 25.9 
Thu Apr 23 11:27:22 2020
  62.Wert: 	25.6	 21.8	 20.7 
Thu Apr 23 11:27:22 2020
  63.Wert: 	24.9	 21.3	 26.8 
Thu Apr 23 11:27:22 2020
  64.Wert: 	21.1	 24.0	 26.5 
Thu Apr 23 11:27:22 2020
  65.Wert: 	26.4	 24.7	 20.6 
Thu Apr 23 11:27:22 2020
  66.Wert: 	22.1	 21.6	 25.5 
Thu Apr 23 11:27:22 2020
  67.Wert: 	27.7	 25.7	 20.8 
Thu Apr 23 11:27:22 2020
  68.Wert: 	20.4	 25.4	 20.9 
Thu Apr 23 11:27:22 2020
  69.Wert: 	20.3	 26.3	 23.0 
Thu Apr 23 11:27:22 2020
  70.Wert: 	22.7	 23.6	 20.0 
Thu Apr 23 11:27:22 2020
  71.Wert: 	25.3	 23.8	 26.2 
Thu Apr 23 11:27:22 2020
  72.Wert: 	22.4	 20.4	 25.5 
Thu Apr 23 11:27:22 2020
  73.Wert: 	22.1	 28.5	 20.9 
Thu Apr 23 11:27:22 2020
  74.Wert: 	23.9	 25.6	 27.0 
Thu Apr 23 11:27:22 2020
  75.Wert: 	21.7	 21.5	 22.7 
Thu Apr 23 11:27:22 2020
  76.Wert: 	28.2	 22.9	 23.9 
Thu Apr 23 11:27:22 2020
  77.Wert: 	24.9	 23.7	 26.2 
Thu Apr 23 11:27:22 2020
  78.Wert: 	20.4	 25.6	 24.1 
Thu Apr 23 11:27:22 2020
  79.Wert: 	25.3	 20.8	 25.5 
Thu Apr 23 11:27:22 2020
  80.Wert: 	24.7	 24.2	 20.6 
Thu Apr 23 11:27:22 2020
  81.Wert: 	23.2	 22.3	 20.9 
Thu Apr 23 11:27:22 2020
  82.Wert: 	22.8	 20.9	 28.3 
Thu Apr 23 11:27:22 2020
  83.Wert: 	23.2	 27.3	 23.1 
Thu Apr 23 11:27:22 2020
  84.Wert: 	26.5	 27.5	 26.3 
Thu Apr 23 11:27:22 2020
  85.Wert: 	25.1	 20.9	 25.5 
Thu Apr 23 11:27:22 2020
  86.Wert: 	21.5	 21.3	 26.5 
Thu Apr 23 11:27:22 2020
  87.Wert: 	28.3	 26.5	 28.4 
Thu Apr 23 11:27:22 2020
  88.Wert: 	20.6	 22.7	 22.9 
Thu Apr 23 11:27:22 2020
  89.Wert: 	26.6	 22.8	 26.6 
Thu Apr 23 11:27:22 2020
  90.Wert: 	23.6	 28.1	 22.6 
Thu Apr 23 11:27:22 2020
  91.Wert: 	28.0	 26.5	 20.2 
Thu Apr 23 11:27:22 2020
  92.Wert: 	26.5	 21.8	 25.8 
Thu Apr 23 11:27:22 2020
  93.Wert: 	21.1	 27.7	 28.1 
Thu Apr 23 11:27:22 2020
  94.Wert: 	25.6	 24.9	 25.1 
Thu Apr 23 11:27:22 2020
  95.Wert: 	24.4	 22.6	 28.0 
Thu Apr 23 11:27:22 2020
  96.Wert: 	22.8	 27.2	 26.8 
Thu Apr 23 11:27:22 2020
  97.Wert: 	22.9	 27.4	 24.6 
Thu Apr 23 11:27:22 2020
  98.Wert: 	26.7	 28.2	 22.0 
Thu Apr 23 11:27:22 2020
  99.Wert: 	27.1	 23.8	 28.1 
Thu Apr 23 11:27:22 2020
  100.Wert: 	23.7	 26.8	 21.3 
Thu Apr 23 11:27:22 2020
  101.Wert: 	27.8	 22.4	 20.5 
Thu Apr 23 11:27:22 2020
  102.Wert: 	24.1	 23.8	 24.0 
Thu Apr 23 11:27:22 2020
  103.Wert: 	20.8	 22.5	 23.9 
Thu Apr 23 11:27:22 2020
  104.Wert: 	21.1	 26.3	 24.2 
Thu Apr 23 11:27:22 2020
  105.Wert: 	26.6	 28.1	 27.0 
Thu Apr 23 11:27:22 2020
  106.Wert: 	20.3	 22.9	 26.3 
Thu Apr 23 11:27:22 2020
  107.Wert: 	24.8	 20.7	 27.8 
Thu Apr 23 11:27:22 2020
  108.Wert: 	23.9	 26.2	 25.0 
Thu Apr 23 11:27:22 2020
  109.Wert: 	23.3	 23.8	 28.4 
Thu Apr 23 11:27:22 2020
  110.Wert: 	22.8	 24.9	 28.0 
Thu Apr 23 11:27:22 2020
  111.Wert: 	24.7	 28.1	 28.3 
Thu Apr 23 11:27:22 2020
  112.Wert: 	24.3	 27.6	 22.6 
Thu Apr 23 11:27:22 2020
  113.Wert: 	25.1	 26.3	 20.2 
Thu Apr 23 11:27:22 2020
  114.Wert: 	25.2	 22.0	 24.7 
Thu Apr 23 11:27:22 2020
  115.Wert: 	22.5	 27.3	 27.1 
Thu Apr 23 11:27:22 2020
  116.Wert: 	25.3	 26.3	 22.8 
Thu Apr 23 11:27:22 2020
  117.Wert: 	27.9	 21.9	 21.4 
Thu Apr 23 11:27:22 2020
  118.Wert: 	21.4	 26.7	 20.0 
Thu Apr 23 11:27:22 2020
  119.Wert: 	23.8	 26.9	 25.0 
Thu Apr 23 11:27:22 2020
  120.Wert: 	28.1	 21.5	 28.3 
Thu Apr 23 11:27:22 2020
  121.Wert: 	27.9	 21.9	 20.7 
Thu Apr 23 11:27:22 2020
  122.Wert: 	27.7	 27.4	 27.5 
Thu Apr 23 11:27:22 2020
  123.Wert: 	21.5	 23.4	 23.0 
Thu Apr 23 11:27:22 2020
  124.Wert: 	21.6	 23.8	 24.5 
Thu Apr 23 11:27:22 2020
  125.Wert: 	28.5	 27.2	 27.7 
Thu Apr 23 11:27:22 2020
  126.Wert: 	22.0	 23.7	 25.5 
Thu Apr 23 11:27:22 2020
  127.Wert: 	23.1	 20.7	 21.3 
Thu Apr 23 11:27:22 2020
  128.Wert: 	24.7	 25.6	 21.7 
Thu Apr 23 11:27:22 2020
  129.Wert: 	27.2	 21.9	 25.8 
Thu Apr 23 11:27:22 2020
  130.Wert: 	25.8	 22.5	 27.1 
Thu Apr 23 11:27:22 2020
  131.Wert: 	24.8	 23.5	 21.4 
Thu Apr 23 11:27:22 2020
  132.Wert: 	20.0	 25.1	 26.2 
Thu Apr 23 11:27:22 2020
  133.Wert: 	27.3	 28.5	 22.3 
Thu Apr 23 11:27:22 2020
  134.Wert: 	27.3	 24.6	 25.5 
Thu Apr 23 11:27:22 2020
  135.Wert: 	28.3	 23.8	 25.7 
Thu Apr 23 11:27:22 2020
  136.Wert: 	23.9	 23.6	 21.4 
Thu Apr 23 11:27:22 2020
  137.Wert: 	22.3	 22.9	 20.2 
Thu Apr 23 11:27:22 2020
  138.Wert: 	26.2	 28.1	 22.1 
Thu Apr 23 11:27:22 2020
  139.Wert: 	26.6	 22.9	 26.4 
Thu Apr 23 11:27:22 2020
  140.Wert: 	21.3	 25.4	 27.3 
Thu Apr 23 11:27:22 2020
  141.Wert: 	25.7	 27.7	 27.0 
Thu Apr 23 11:27:22 2020
  142.Wert: 	26.0	 23.7	 21.9 
Thu Apr 23 11:27:22 2020
  143.Wert: 	23.6	 25.4	 24.3 
Thu Apr 23 11:27:22 2020
  144.Wert: 	22.4	 21.6	 27.9 
Thu Apr 23 11:27:22 2020
  145.Wert: 	27.0	 22.6	 23.1 
Thu Apr 23 11:27:22 2020
  146.Wert: 	23.3	 24.9	 25.1 
Thu Apr 23 11:27:22 2020
  147.Wert: 	23.9	 22.1	 27.5 
Thu Apr 23 11:27:22 2020
  148.Wert: 	22.9	 20.7	 22.2 
Thu Apr 23 11:27:22 2020
  149.Wert: 	25.7	 25.2	 27.2 
Thu Apr 23 11:27:22 2020
  150.Wert: 	26.6	 21.7	 20.9 
Thu Apr 23 11:27:22 2020
  151.Wert: 	25.4	 25.0	 22.2 
Thu Apr 23 11:27:22 2020
  152.Wert: 	27.0	 23.1	 27.5 
Thu Apr 23 11:27:22 2020
  153.Wert: 	25.7	 21.2	 20.4 
Thu Apr 23 11:27:22 2020
  154.Wert: 	23.1	 27.6	 27.9 
Thu Apr 23 11:27:22 2020
  155.Wert: 	25.2	 26.3	 26.7 
Thu Apr 23 11:27:22 2020
  156.Wert: 	25.4	 24.7	 26.8 
Thu Apr 23 11:27:22 2020
  157.Wert: 	24.0	 22.6	 21.6 
Thu Apr 23 11:27:22 2020
  158.Wert: 	20.3	 26.0	 24.3 
Thu Apr 23 11:27:22 2020
  159.Wert: 	21.3	 21.6	 20.1 
Thu Apr 23 11:27:22 2020
  160.Wert: 	26.1	 27.6	 26.6 
Thu Apr 23 11:27:22 2020
  161.Wert: 	26.7	 25.8	 21.6 
Thu Apr 23 11:27:22 2020
  162.Wert: 	25.6	 28.3	 28.1 
Thu Apr 23 11:27:22 2020
  163.Wert: 	21.9	 20.9	 27.1 
Thu Apr 23 11:27:22 2020
  164.Wert: 	22.5	 21.4	 21.4 
Thu Apr 23 11:27:22 2020
  165.Wert: 	23.5	 27.6	 27.3 
Thu Apr 23 11:27:22 2020
  166.Wert: 	25.2	 28.4	 22.8 
Thu Apr 23 11:27:22 2020
  167.Wert: 	24.9	 26.4	 24.6 
Thu Apr 23 11:27:22 2020
  168.Wert: 	23.0	 24.5	 21.5 
Thu Apr 23 11:27:22 2020
  169.Wert: 	20.6	 20.1	 28.2 
Thu Apr 23 11:27:22 2020
  170.Wert: 	24.6	 20.7	 23.4 
Thu Apr 23 11:27:22 2020
  171.Wert: 	24.6	 24.7	 27.6 
Thu Apr 23 11:27:22 2020
  172.Wert: 	25.8	 28.0	 22.8 
Thu Apr 23 11:27:22 2020
  173.Wert: 	21.7	 24.2	 20.9 
Thu Apr 23 11:27:22 2020
  174.Wert: 	24.6	 26.0	 23.9 
Thu Apr 23 11:27:22 2020
  175.Wert: 	25.0	 27.7	 27.6 
Thu Apr 23 11:27:22 2020
  176.Wert: 	27.9	 28.2	 27.0 
Thu Apr 23 11:27:22 2020
  177.Wert: 	26.9	 23.2	 25.9 
Thu Apr 23 11:27:22 2020
  178.Wert: 	26.8	 22.6	 22.8 
Thu Apr 23 11:27:22 2020
  179.Wert: 	28.3	 23.1	 22.7 
Thu Apr 23 11:27:22 2020
  180.Wert: 	22.9	 23.5	 27.8 
Thu Apr 23 11:27:22 2020
  181.Wert: 	24.0	 23.0	 21.4 
Thu Apr 23 11:27:22 2020
  182.Wert: 	23.4	 28.0	 22.7 
Thu Apr 23 11:27:22 2020
  183.Wert: 	25.8	 23.8	 25.7 
Thu Apr 23 11:27:22 2020
  184.Wert: 	23.5	 22.9	 22.6 
Thu Apr 23 11:27:22 2020
  185.Wert: 	20.1	 26.7	 22.1 
Thu Apr 23 11:27:22 2020
  186.Wert: 	27.4	 24.9	 24.9 
Thu Apr 23 11:27:22 2020
  187.Wert: 	24.5	 25.3	 24.7 
Thu Apr 23 11:27:22 2020
  188.Wert: 	21.1	 22.2	 20.2 
Thu Apr 23 11:27:22 2020
  189.Wert: 	26.2	 24.9	 26.2 
Thu Apr 23 11:27:22 2020
  190.Wert: 	21.9	 24.8	 21.4 
Thu Apr 23 11:27:22 2020
  191.Wert: 	24.4	 23.2	 20.5 
Thu Apr 23 11:27:22 2020
  192.Wert: 	28.4	 25.9	 26.0 
Thu Apr 23 11:27:22 2020
  193.Wert: 	21.4	 28.4	 23.4 
Thu Apr 23 11:27:22 2020
  194.Wert: 	23.2	 25.0	 23.9 
Thu Apr 23 11:27:22 2020
  195.Wert: 	20.0	 25.7	 23.4 
Thu Apr 23 11:27:22 2020
  196.Wert: 	25.2	 22.7	 28.0 
Thu Apr 23 11:27:22 2020
  197.Wert: 	20.9	 21.3	 27.3 
Thu Apr 23 11:27:22 2020
  198.Wert: 	23.4	 24.3	 20.8 
Thu Apr 23 11:27:22 2020
  199.Wert: 	27.2	 20.6	 21.8 
Thu Apr 23 11:27:22 2020
  200.Wert: 	21.8	 25.3	 24.6 
Thu Apr 23 11:27:22 2020
  201.Wert: 	27.6	 24.9	 24.5 
Thu Apr 23 11:27:22 2020
  202.Wert: 	25.1	 22.0	 24.0 
Thu Apr 23 11:27:22 2020
  203.Wert: 	26.7	 26.5	 26.7 
Thu Apr 23 11:27:22 2020
  204.Wert: 	23.6	 21.8	 20.2 
Thu Apr 23 11:27:22 2020
  205.Wert: 	24.4	 21.1	 26.0 
Thu Apr 23 11:27:22 2020
  206.Wert: 	27.0	 23.2	 25.0 
Thu Apr 23 11:27:22 2020
  207.Wert: 	20.4	 24.5	 24.7 
Thu Apr 23 11:27:22 2020
  208.Wert: 	26.5	 28.0	 24.7 
Thu Apr 23 11:27:22 2020
  209.Wert: 	26.4	 21.5	 21.2 
Thu Apr 23 11:27:22 2020
  210.Wert: 	20.7	 24.3	 21.7 
Thu Apr 23 11:27:22 2020
  211.Wert: 	21.2	 20.4	 22.5 
Thu Apr 23 11:27:22 2020
  212.Wert: 	27.0	 26.8	 26.0 
Thu Apr 23 11:27:22 2020
  213.Wert: 	26.2	 27.2	 26.0 
Thu Apr 23 11:27:22 2020
  214.Wert: 	28.5	 27.2	 24.9 
Thu Apr 23 11:27:22 2020
  215.Wert: 	23.3	 26.7	 23.8 
Thu Apr 23 11:27:22 2020
  216.Wert: 	26.7	 26.8	 20.5 
Thu Apr 23 11:27:22 2020
  217.Wert: 	23.1	 25.7	 27.6 
Thu Apr 23 11:27:22 2020
  218.Wert: 	24.7	 22.9	 22.2 
Thu Apr 23 11:27:22 2020
  219.Wert: 	23.3	 23.6	 22.9 
Thu Apr 23 11:27:22 2020
  220.Wert: 	23.9	 28.5	 26.7 
Thu Apr 23 11:27:22 2020
  221.Wert: 	27.0	 21.9	 24.2 
Thu Apr 23 11:27:22 2020
  222.Wert: 	24.5	 25.7	 24.2 
Thu Apr 23 11:27:22 2020
  223.Wert: 	26.9	 23.8	 26.1 
Thu Apr 23 11:27:22 2020
  224.Wert: 	27.3	 23.5	 27.0 
Thu Apr 23 11:27:22 2020
  225.Wert: 	23.3	 26.6	 22.9 
Thu Apr 23 11:27:22 2020
  226.Wert: 	25.3	 26.2	 24.0 
Thu Apr 23 11:27:22 2020
  227.Wert: 	22.2	 25.6	 26.5 
Thu Apr 23 11:27:22 2020
  228.Wert: 	20.6	 23.8	 23.9 
Thu Apr 23 11:27:22 2020
  229.Wert: 	22.9	 22.9	 23.8 
Thu Apr 23 11:27:22 2020
  230.Wert: 	24.0	 21.9	 23.2 
Thu Apr 23 11:27:22 2020
  231.Wert: 	23.5	 22.8	 26.3 
Thu Apr 23 11:27:22 2020
  232.Wert: 	26.2	 23.7	 26.8 
Thu Apr 23 11:27:22 2020
  233.Wert: 	26.9	 23.6	 22.2 
Thu Apr 23 11:27:22 2020
  234.Wert: 	28.4	 26.7	 20.2 
Thu Apr 23 11:27:22 2020
  235.Wert: 	24.2	 25.5	 22.3 
Thu Apr 23 11:27:22 2020
  236.Wert: 	24.6	 26.0	 20.2 
Thu Apr 23 11:27:22 2020
  237.Wert: 	21.4	 20.5	 26.4 
Thu Apr 23 11:27:22 2020
  238.Wert: 	28.4	 26.6	 22.4 
Thu Apr 23 11:27:22 2020
  239.Wert: 	23.8	 22.3	 27.4 
Thu Apr 23 11:27:22 2020
  240.Wert: 	23.4	 20.5	 21.5 
Thu Apr 23 11:27:22 2020
  241.Wert: 	22.1	 25.3	 24.8 
Thu Apr 23 11:27:22 2020
  242.Wert: 	24.5	 21.8	 20.1 
Thu Apr 23 11:27:22 2020
  243.Wert: 	23.9	 26.1	 23.7 
Thu Apr 23 11:27:22 2020
  244.Wert: 	26.8	 20.0	 21.1 
Thu Apr 23 11:27:22 2020
  245.Wert: 	27.4	 26.4	 21.9 
Thu Apr 23 11:27:22 2020
  246.Wert: 	20.1	 22.7	 25.9 
Thu Apr 23 11:27:22 2020
  247.Wert: 	21.4	 20.1	 28.5 
Thu Apr 23 11:27:22 2020
  248.Wert: 	21.8	 24.4	 23.2 
Thu Apr 23 11:27:22 2020
  249.Wert: 	24.8	 20.8	 27.2 
Thu Apr 23 11:27:22 2020
  250.Wert: 	24.4	 24.6	 26.2 
Thu Apr 23 11:27:22 2020
  251.Wert: 	26.8	 20.1	 21.5 
Thu Apr 23 11:27:22 2020
  252.Wert: 	21.5	 26.6	 25.4 
Thu Apr 23 11:27:22 2020
  253.Wert: 	26.0	 20.9	 25.8 
Thu Apr 23 11:27:22 2020
  254.Wert: 	21.2	 20.8	 20.1 
Thu Apr 23 11:27:22 2020
  255.Wert: 	28.5	 21.4	 22.8 
Thu Apr 23 11:27:22 2020
  256.Wert: 	20.6	 24.4	 23.4 
Thu Apr 23 11:27:22 2020
  257.Wert: 	22.0	 23.2	 25.9 
Thu Apr 23 11:27:22 2020
  258.Wert: 	20.9	 26.8	 23.4 
Thu Apr 23 11:27:22 2020
  259.Wert: 	24.8	 22.2	 21.8 
Thu Apr 23 11:27:22 2020
  260.Wert: 	24.8	 25.7	 21.8 
Thu Apr 23 11:27:22 2020
  261.Wert: 	23.8	 22.0	 28.1 
Thu Apr 23 11:27:22 2020
  262.Wert: 	24.5	 25.8	 22.4 
Thu Apr 23 11:27:22 2020
  263.Wert: 	24.5	 23.8	 28.5 
Thu Apr 23 11:27:22 2020
  264.Wert: 	27.0	 27.5	 20.0 
Thu Apr 23 11:27:22 2020
  265.Wert: 	23.3	 26.5	 23.2 
Thu Apr 23 11:27:22 2020
  266.Wert: 	27.6	 20.0	 28.0 
Thu Apr 23 11:27:22 2020
  267.Wert: 	27.8	 23.2	 25.5 
Thu Apr 23 11:27:22 2020
  268.Wert: 	20.0	 22.3	 23.8 
Thu Apr 23 11:27:22 2020
  269.Wert: 	24.8	 26.6	 24.1 
Thu Apr 23 11:27:22 2020
  270.Wert: 	20.4	 25.7	 20.2 
Thu Apr 23 11:27:22 2020
  271.Wert: 	21.1	 28.5	 21.1 
Thu Apr 23 11:27:22 2020
  272.Wert: 	26.8	 23.1	 22.2 
Thu Apr 23 11:27:22 2020
  273.Wert: 	22.6	 24.3	 23.7 
Thu Apr 23 11:27:22 2020
  274.Wert: 	23.1	 22.6	 26.7 
Thu Apr 23 11:27:22 2020
  275.Wert: 	24.2	 22.0	 25.7 
Thu Apr 23 11:27:22 2020
  276.Wert: 	20.3	 24.0	 25.6 
Thu Apr 23 11:27:22 2020
  277.Wert: 	20.6	 28.4	 25.5 
Thu Apr 23 11:27:22 2020
  278.Wert: 	24.1	 20.5	 21.7 
Thu Apr 23 11:27:22 2020
  279.Wert: 	21.2	 25.0	 26.4 
Thu Apr 23 11:27:22 2020
  280.Wert: 	23.0	 24.3	 21.5 
Thu Apr 23 11:27:22 2020
  281.Wert: 	26.8	 21.2	 25.4 
Thu Apr 23 11:27:22 2020
  282.Wert: 	28.0	 23.6	 27.9 
Thu Apr 23 11:27:22 2020
  283.Wert: 	25.0	 27.1	 24.9 
Thu Apr 23 11:27:22 2020
  284.Wert: 	25.3	 22.6	 21.9 
Thu Apr 23 11:27:22 2020
  285.Wert: 	22.1	 23.2	 25.2 
Thu Apr 23 11:27:22 2020
  286.Wert: 	27.2	 22.7	 21.0 
Thu Apr 23 11:27:22 2020
  287.Wert: 	25.9	 23.2	 21.1 
Thu Apr 23 11:27:22 2020
  288.Wert: 	26.1	 25.2	 22.8 